{
  "AWS" : {
    "Access_key_ID" : "AKIAI7VMPIIM4GZVUIFQ",
    "Secret_access_key" : "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",
    "bitbucket_url" : "git clone https://scarto@bitbucket.org/scartohome/meta_script.git",
    "aws_configure" : "run $ aws configure // AWS Access Key ID [None]: AKIAIOSFODNN7EXAMPLE AWS Secret Access Key [None]: wJalrXUtnFEMI/K7MDENG/bPxRfiCYEXAMPLEKEY Default region name [None]: us-west-2 Default output format [None]: json"
  }
}