{
  "course_76": [
    {
      "Hash": "4HY4n5YzAeRKW9TfU17EnrBWlEbQF6MQGDTuENfdRBU=",
      "Version": "25/04/2018 12:02:38",
      "Type": "AssetBundle",
      "Path": "drive/courses/course_76/course_76/course_76.StandaloneWindows"
    },
    {
      "Hash": "hBE1F3fbl8NkWekGtVoAXXDZ7AwNzV7r4tlFKak8IHg=",
      "Version": "25/04/2018 12:04:45",
      "Type": "AssetBundle",
      "Path": "drive/courses/course_76/course_76/course_76.Android"
    }
  ],
  "section_1006": [
    {
      "Hash": "+cFwnX5edLgpiaGmh8sOGlij0jRwNs4ijPqyaw2qUPg=",
      "Version": "25/04/2018 12:02:38",
      "Type": "AssetBundle",
      "Path": "drive/courses/course_76/section_1006/section_1006.StandaloneWindows"
    },
    {
      "Hash": "XC/CDp/ZkQO1N8RP7PJEVIXCOmDqnppUwQ4OTNGSF/8=",
      "Version": "25/04/2018 12:04:46",
      "Type": "AssetBundle",
      "Path": "drive/courses/course_76/section_1006/section_1006.Android"
    }
  ],
  "section_1007": [
    {
      "Hash": "DPO9BXaKWtBZM56M9wzRs0EylB+2LKhyl5Xe80sBOtY=",
      "Version": "25/04/2018 12:02:38",
      "Type": "AssetBundle",
      "Path": "drive/courses/course_76/section_1007/section_1007.StandaloneWindows"
    },
    {
      "Hash": "yxzZatvs5p9IR6Kk0mOVoMlFjqdRkppZTr+Tq41/vKM=",
      "Version": "25/04/2018 12:04:46",
      "Type": "AssetBundle",
      "Path": "drive/courses/course_76/section_1007/section_1007.Android"
    }
  ],
  "section_root": [
    {
      "Hash": "+BGivKbJFcmBR+XY6qKO+eHlxCFkyeN7G76bkMG98y8=",
      "Version": "25/04/2018 12:04:46",
      "Type": "AssetBundle",
      "Path": "drive/courses/course_76/section_root/section_root.Android"
    },
    {
      "Hash": "YdBuFpGGSxXR8cYWFoMG8z6kZuldEg0KItEWky7mqfg=",
      "Version": "25/04/2018 12:02:38",
      "Type": "AssetBundle",
      "Path": "drive/courses/course_76/section_root/section_root.StandaloneWindows"
    }
  ]
}
